Spatial Thinning, Dependency, Clustering, And Blocking of Point Data for Classification Problems • stdcab
…
spc_rcv
#> # A tibble: 25 × 3
#>    splits             id      id2  
#>    <list>             <chr>   <chr>
#>  1 <split [1503/419]> Repeat1 Fold1
#>  2 <split [1632/290]> Repeat1 Fold2
#>  3 <split [1573/349]> Repeat1 Fold3
#>  4 <split [1353/569]> Repeat1 Fold4
#>  5 <split [1627/295]> Repeat1 Fold5
#>  6 <split [1331/591]> Repeat2 Fold1
#>  7 <split [1648/274]> Repeat2 Fold2
#>  8 <split [1482/440]> Repeat2 Fold3
#>  9 <split [1654/268]> Repeat2 Fold4
#> 10 <split [1573/349]> Repeat2 Fold5
#> # ℹ 15 more rows
…
