Spatial Thinning, Dependency, Clustering, and Blocking of Spatial Point Data for Classification Problems • stdcab
…
Apply repeated cluster sampling on sf data

To make visualization easy lets make five folds and five repeats resulting 25 splits of data based on kmeans clustering.

set.seed(1318)

spc_rcv<- repeated_spatial_cluster_sample(data = dspatial, v = 5, repeats = 5,
                            coords = NULL, spatial = TRUE, clust_method = "kmeans", 
                            dist_clust = NULL)

spc_rcv
#> # A tibble: 25 x 3
#>    splits             id      id2  
#>    <list>             <chr>   <chr>
#>  1 <split [1503/419]> Repeat1 Fold1
#>  2 <split [1632/290]> Repeat1 Fold2
#>  3 <split [1573/349]> Repeat1 Fold3
#>  4 <split [1353/569]> Repeat1 Fold4
#>  5 <split [1627/295]> Repeat1 Fold5
#>  6 <split [1331/591]> Repeat2 Fold1
#>  7 <split [1648/274]> Repeat2 Fold2
#>  8 <split [1482/440]> Repeat2 Fold3
#>  9 <split [1654/268]> Repeat2 Fold4
#> 10 <split [1573/349]> Repeat2 Fold5
#> # ... with 15 more rows
…
